{
    "swagger": "2.0",
    "info": {
        "description": "This is a sample server Petstore server.",
        "title": "gin Server rest api",
        "termsOfService": "http://swagger.io/terms/",
        "contact": {
            "name": "API Support",
            "url": "http://facebook",
            "email": "zytiam@hotmail.com"
        },
        "license": {
            "name": "Apache 2.0",
            "url": "http://www.apache.org/licenses/LICENSE-2.0.html"
        },
        "version": "1.0"
    },
    "host": "petstore.swagger.io",
    "basePath": "/v1",
    "paths": {
        "/api/v1/articles": {
            "get": {
                "produces": [
                    "application/json"
                ],
                "summary": "Get multiple articles",
                "parameters": [
                    {
                        "description": "TagID",
                        "name": "tag_id",
                        "in": "body",
                        "schema": {
                            "type": "object",
                            "$ref": "#/definitions/int"
                        }
                    },
                    {
                        "description": "State",
                        "name": "state",
                        "in": "body",
                        "schema": {
                            "type": "object",
                            "$ref": "#/definitions/int"
                        }
                    },
                    {
                        "description": "CreatedBy",
                        "name": "created_by",
                        "in": "body",
                        "schema": {
                            "type": "object",
                            "$ref": "#/definitions/int"
                        }
                    }
                ],
                "responses": {
                    "200": {
                        "description": "OK",
                        "schema": {
                            "$ref": "#/definitions/app.Response"
                        }
                    },
                    "500": {
                        "description": "Internal Server Error",
                        "schema": {
                            "$ref": "#/definitions/app.Response"
                        }
                    }
                }
            },
            "post": {
                "produces": [
                    "application/json"
                ],
                "summary": "Add article",
                "parameters": [
                    {
                        "description": "TagID",
                        "name": "tag_id",
                        "in": "body",
                        "required": true,
                        "schema": {
                            "type": "object",
                            "$ref": "#/definitions/int"
                        }
                    },
                    {
                        "description": "Title",
                        "name": "title",
                        "in": "body",
                        "required": true,
                        "schema": {
                            "type": "object",
                            "$ref": "#/definitions/string"
                        }
                    },
                    {
                        "description": "Desc",
                        "name": "desc",
                        "in": "body",
                        "required": true,
                        "schema": {
                            "type": "object",
                            "$ref": "#/definitions/string"
                        }
                    },
                    {
                        "description": "Content",
                        "name": "content",
                        "in": "body",
                        "required": true,
                        "schema": {
                            "type": "object",
                            "$ref": "#/definitions/string"
                        }
                    },
                    {
                        "description": "CreatedBy",
                        "name": "created_by",
                        "in": "body",
                        "required": true,
                        "schema": {
                            "type": "object",
                            "$ref": "#/definitions/string"
                        }
                    },
                    {
                        "description": "State",
                        "name": "state",
                        "in": "body",
                        "required": true,
                        "schema": {
                            "type": "object",
                            "$ref": "#/definitions/int"
                        }
                    }
                ],
                "responses": {
                    "200": {
                        "description": "OK",
                        "schema": {
                            "$ref": "#/definitions/app.Response"
                        }
                    },
                    "500": {
                        "description": "Internal Server Error",
                        "schema": {
                            "$ref": "#/definitions/app.Response"
                        }
                    }
                }
            }
        },
        "/api/v1/articles/{id}": {
            "get": {
                "produces": [
                    "application/json"
                ],
                "summary": "Get a single article",
                "parameters": [
                    {
                        "type": "integer",
                        "description": "ID",
                        "name": "id",
                        "in": "path",
                        "required": true
                    }
                ],
                "responses": {
                    "200": {
                        "description": "OK",
                        "schema": {
                            "$ref": "#/definitions/app.Response"
                        }
                    },
                    "500": {
                        "description": "Internal Server Error",
                        "schema": {
                            "$ref": "#/definitions/app.Response"
                        }
                    }
                }
            },
            "put": {
                "produces": [
                    "application/json"
                ],
                "summary": "Update article",
                "parameters": [
                    {
                        "type": "integer",
                        "description": "ID",
                        "name": "id",
                        "in": "path",
                        "required": true
                    },
                    {
                        "description": "TagID",
                        "name": "tag_id",
                        "in": "body",
                        "schema": {
                            "type": "object",
                            "$ref": "#/definitions/string"
                        }
                    },
                    {
                        "description": "Title",
                        "name": "title",
                        "in": "body",
                        "schema": {
                            "type": "object",
                            "$ref": "#/definitions/string"
                        }
                    },
                    {
                        "description": "Desc",
                        "name": "desc",
                        "in": "body",
                        "schema": {
                            "type": "object",
                            "$ref": "#/definitions/string"
                        }
                    },
                    {
                        "description": "Content",
                        "name": "content",
                        "in": "body",
                        "schema": {
                            "type": "object",
                            "$ref": "#/definitions/string"
                        }
                    },
                    {
                        "description": "ModifiedBy",
                        "name": "modified_by",
                        "in": "body",
                        "required": true,
                        "schema": {
                            "type": "object",
                            "$ref": "#/definitions/string"
                        }
                    },
                    {
                        "description": "State",
                        "name": "state",
                        "in": "body",
                        "schema": {
                            "type": "object",
                            "$ref": "#/definitions/int"
                        }
                    }
                ],
                "responses": {
                    "200": {
                        "description": "OK",
                        "schema": {
                            "$ref": "#/definitions/app.Response"
                        }
                    },
                    "500": {
                        "description": "Internal Server Error",
                        "schema": {
                            "$ref": "#/definitions/app.Response"
                        }
                    }
                }
            },
            "delete": {
                "produces": [
                    "application/json"
                ],
                "summary": "Delete article",
                "parameters": [
                    {
                        "type": "integer",
                        "description": "ID",
                        "name": "id",
                        "in": "path",
                        "required": true
                    }
                ],
                "responses": {
                    "200": {
                        "description": "OK",
                        "schema": {
                            "$ref": "#/definitions/app.Response"
                        }
                    },
                    "500": {
                        "description": "Internal Server Error",
                        "schema": {
                            "$ref": "#/definitions/app.Response"
                        }
                    }
                }
            }
        },
        "/api/v1/tags": {
            "get": {
                "produces": [
                    "application/json"
                ],
                "summary": "Get multiple article tags",
                "parameters": [
                    {
                        "type": "string",
                        "description": "Name",
                        "name": "name",
                        "in": "query"
                    },
                    {
                        "type": "integer",
                        "description": "State",
                        "name": "state",
                        "in": "query"
                    }
                ],
                "responses": {
                    "200": {
                        "description": "OK",
                        "schema": {
                            "$ref": "#/definitions/app.Response"
                        }
                    },
                    "500": {
                        "description": "Internal Server Error",
                        "schema": {
                            "$ref": "#/definitions/app.Response"
                        }
                    }
                }
            },
            "post": {
                "produces": [
                    "application/json"
                ],
                "summary": "Add article tag",
                "parameters": [
                    {
                        "description": "Name",
                        "name": "name",
                        "in": "body",
                        "required": true,
                        "schema": {
                            "type": "object",
                            "$ref": "#/definitions/string"
                        }
                    },
                    {
                        "description": "State",
                        "name": "state",
                        "in": "body",
                        "schema": {
                            "type": "object",
                            "$ref": "#/definitions/int"
                        }
                    },
                    {
                        "description": "CreatedBy",
                        "name": "created_by",
                        "in": "body",
                        "schema": {
                            "type": "object",
                            "$ref": "#/definitions/int"
                        }
                    }
                ],
                "responses": {
                    "200": {
                        "description": "OK",
                        "schema": {
                            "$ref": "#/definitions/app.Response"
                        }
                    },
                    "500": {
                        "description": "Internal Server Error",
                        "schema": {
                            "$ref": "#/definitions/app.Response"
                        }
                    }
                }
            }
        },
        "/api/v1/tags/export": {
            "post": {
                "produces": [
                    "application/json"
                ],
                "summary": "Export article tag",
                "parameters": [
                    {
                        "description": "Name",
                        "name": "name",
                        "in": "body",
                        "schema": {
                            "type": "object",
                            "$ref": "#/definitions/string"
                        }
                    },
                    {
                        "description": "State",
                        "name": "state",
                        "in": "body",
                        "schema": {
                            "type": "object",
                            "$ref": "#/definitions/int"
                        }
                    }
                ],
                "responses": {
                    "200": {
                        "description": "OK",
                        "schema": {
                            "$ref": "#/definitions/app.Response"
                        }
                    },
                    "500": {
                        "description": "Internal Server Error",
                        "schema": {
                            "$ref": "#/definitions/app.Response"
                        }
                    }
                }
            }
        },
        "/api/v1/tags/import": {
            "post": {
                "produces": [
                    "application/json"
                ],
                "summary": "Import article tag",
                "parameters": [
                    {
                        "description": "Excel File",
                        "name": "file",
                        "in": "body",
                        "required": true,
                        "schema": {
                            "type": "object",
                            "$ref": "#/definitions/file"
                        }
                    }
                ],
                "responses": {
                    "200": {
                        "description": "OK",
                        "schema": {
                            "$ref": "#/definitions/app.Response"
                        }
                    },
                    "500": {
                        "description": "Internal Server Error",
                        "schema": {
                            "$ref": "#/definitions/app.Response"
                        }
                    }
                }
            }
        },
        "/api/v1/tags/{id}": {
            "put": {
                "produces": [
                    "application/json"
                ],
                "summary": "Update article tag",
                "parameters": [
                    {
                        "type": "integer",
                        "description": "ID",
                        "name": "id",
                        "in": "path",
                        "required": true
                    },
                    {
                        "description": "ID",
                        "name": "name",
                        "in": "body",
                        "required": true,
                        "schema": {
                            "type": "object",
                            "$ref": "#/definitions/string"
                        }
                    },
                    {
                        "description": "State",
                        "name": "state",
                        "in": "body",
                        "schema": {
                            "type": "object",
                            "$ref": "#/definitions/int"
                        }
                    },
                    {
                        "description": "ModifiedBy",
                        "name": "modified_by",
                        "in": "body",
                        "required": true,
                        "schema": {
                            "type": "object",
                            "$ref": "#/definitions/string"
                        }
                    }
                ],
                "responses": {
                    "200": {
                        "description": "OK",
                        "schema": {
                            "$ref": "#/definitions/app.Response"
                        }
                    },
                    "500": {
                        "description": "Internal Server Error",
                        "schema": {
                            "$ref": "#/definitions/app.Response"
                        }
                    }
                }
            },
            "delete": {
                "produces": [
                    "application/json"
                ],
                "summary": "Delete article tag",
                "parameters": [
                    {
                        "type": "integer",
                        "description": "ID",
                        "name": "id",
                        "in": "path",
                        "required": true
                    }
                ],
                "responses": {
                    "200": {
                        "description": "OK",
                        "schema": {
                            "$ref": "#/definitions/app.Response"
                        }
                    },
                    "500": {
                        "description": "Internal Server Error",
                        "schema": {
                            "$ref": "#/definitions/app.Response"
                        }
                    }
                }
            }
        },
        "/auth": {
            "get": {
                "produces": [
                    "application/json"
                ],
                "parameters": [
                    {
                        "type": "string",
                        "description": "userName",
                        "name": "username",
                        "in": "query",
                        "required": true
                    },
                    {
                        "type": "string",
                        "description": "password",
                        "name": "password",
                        "in": "query",
                        "required": true
                    }
                ],
                "responses": {
                    "200": {
                        "description": "OK",
                        "schema": {
                            "$ref": "#/definitions/app.Response"
                        }
                    },
                    "500": {
                        "description": "Internal Server Error",
                        "schema": {
                            "$ref": "#/definitions/app.Response"
                        }
                    }
                }
            }
        },
        "/version": {
            "get": {
                "produces": [
                    "application/json"
                ],
                "summary": "Get version",
                "responses": {
                    "200": {
                        "description": "OK",
                        "schema": {
                            "$ref": "#/definitions/app.Response"
                        }
                    },
                    "500": {
                        "description": "Internal Server Error",
                        "schema": {
                            "$ref": "#/definitions/app.Response"
                        }
                    }
                }
            }
        }
    },
    "definitions": {
        "app.Response": {
            "type": "object",
            "properties": {
                "code": {
                    "type": "integer"
                },
                "data": {
                    "type": "object"
                },
                "msg": {
                    "type": "string"
                }
            }
        }
    }
}